{
    "id": "https://www.xshl.org/schemas/1.1/rpc/accounts/person/upsert.json",
    "$schema": "http://json-schema.org/draft-07/schema#",
    "title": "RPC: Insert or Update person to account",
    "description": "Create new or update existing personal information to user account",
    "type": "object",
    "additionalProperties": false,
    "required": ["args"],
    "properties": {
        "args": {
            "type": "array",
            "minItems": 1,
            "items": {"$ref": "https://www.xshl.org/schemas/1.1/content/share/person.json"}
        }
    }
}