{
    "id": "https://www.xshl.org/schemas/1/interactive/contest.json",
    "$schema": "http://json-schema.org/draft-04/schema#",
    "description": "Request of contest",
    "additionalProperties": false,
    "required": ["target"],
    "type": "object",
    "properties": {
        "target": {
            "additionalProperties": false,
            "required": ["class", "id"],
            "type": "object",
            "properties": {
                "class": {"type": "string"},
                "id": {"type": "string"}
            }
        }
    }
}