{
    "id": "https://www.xshl.org/schemas/1.1/rpc/pure.json",
    "$schema": "http://json-schema.org/draft-07/schema#",
    "title": "RPC: Pure",
    "description": "Method call without parameters.",
    "type": "object",
    "additionalProperties": false,
    "properties": {}
}